﻿# Tiled2Unity generated file. Do not modify by hand.
# Wavefront file for 'level2_mesh_0001.obj'

# Vertices (Count = 28)
v -128 -416 0
v -160 -416 0
v -160 -384 0
v -128 -384 0
v -128 -448 0
v -160 -448 0
v -160 -416 0
v -128 -416 0
v -128 -480 0
v -160 -480 0
v -160 -448 0
v -128 -448 0
v -128 -512 0
v -160 -512 0
v -160 -480 0
v -128 -480 0
v -224 -512 0
v -256 -512 0
v -256 -480 0
v -224 -480 0
v -256 -512 0
v -288 -512 0
v -288 -480 0
v -256 -480 0
v -288 -512 0
v -320 -512 0
v -320 -480 0
v -288 -480 0

# Texture cooridinates (Count = 4)
vt 0.05 0.9111111
vt 0.1 0.9111111
vt 0.1 1
vt 0.05 1

# Normal
vn 0 0 -1

# Mesh description
g level2_mesh_0001

# Faces
f 1/1/1 2/2/1 3/3/1 4/4/1
f 5/1/1 6/2/1 7/3/1 8/4/1
f 9/1/1 10/2/1 11/3/1 12/4/1
f 13/1/1 14/2/1 15/3/1 16/4/1
f 17/1/1 18/2/1 19/3/1 20/4/1
f 21/1/1 22/2/1 23/3/1 24/4/1
f 25/1/1 26/2/1 27/3/1 28/4/1

